Biostat 212A Homework 3
…
For this problem, the lasso seems to be the best method to predict the per capita crime rate in the Boston data set. The lasso has the lowest RMSE in the cross-validation and test sets. The ridge regression has a slightly higher RMSE than the lasso, and the least squares method has the highest RMSE. The process is as below:

Packages load:

library(GGally)
library(MASS)
library(ISLR2)
library(tidymodels)
library(tidyverse)

Data overview:

Boston <- as_tibble(Boston) %>% print(width = Inf)

# A tibble: 506 × 14
      crim    zn indus  chas   nox    rm   age   dis   rad   tax ptratio black
     <dbl> <dbl> <dbl> <int> <dbl> <dbl> <dbl> <dbl> <int> <dbl>   <dbl> <dbl>
 1 0.00632  18    2.31     0 0.538  6.58  65.2  4.09     1   296    15.3  397.
 2 0.0273    0    7.07     0 0.469  6.42  78.9  4.97     2   242    17.8  397.
 3 0.0273    0    7.07     0 0.469  7.18  61.1  4.97     2   242    17.8  393.
 4 0.0324    0    2.18     0 0.458  7.00  45.8  6.06     3   222    18.7  395.
 5 0.0690    0    2.18     0 0.458  7.15  54.2  6.06     3   222    18.7  397.
 6 0.0298    0    2.18     0 0.458  6.43  58.7  6.06     3   222    18.7  394.
 7 0.0883   12.5  7.87     0 0.524  6.01  66.6  5.56     5   311    15.2  396.
 8 0.145    12.5  7.87     0 0.524  6.17  96.1  5.95     5   311    15.2  397.
 9 0.211    12.5  7.87     0 0.524  5.63 100    6.08     5   311    15.2  387.
10 0.170    12.5  7.87     0 0.524  6.00  85.9  6.59     5   311    15.2  387.
   lstat  medv
   <dbl> <dbl>
 1  4.98  24  
 2  9.14  21.6
 3  4.03  34.7
 4  2.94  33.4
 5  5.33  36.2
 6  5.21  28.7
 7 12.4   22.9
 8 19.2   27.1
 9 29.9   16.5
10 17.1   18.9
# ℹ 496 more rows
…
Main Arguments:
  penalty = tune()
  mixture = 1

Computational engine: glmnet 

Tuning grid

lambda_grid <-
  grid_regular(penalty(range = c(-3,3), trans = log10_trans()), levels = 100)
lambda_grid

# A tibble: 100 × 1
   penalty
     <dbl>
 1 0.001  
 2 0.00115
 3 0.00132
 4 0.00152
 5 0.00175
 6 0.00201
 7 0.00231
 8 0.00266
 9 0.00305
10 0.00351
# ℹ 90 more rows
…
Run `show_notes(.Last.tune.result)` for more information.

# Visualize CV criterion
lasso_fit %>%
  collect_metrics() %>%
  print(width = Inf) %>%
  filter(.metric == "rmse") %>%
  ggplot(mapping = aes(x = penalty, y = mean)) +
  geom_line() +
  geom_point() +
  labs(title = "Lasso CV RMSE", x = "Penalty", y = "CV RMSE") +
  scale_x_log10(labels = scales::label_number())

# A tibble: 200 × 7
   penalty .metric .estimator  mean     n std_err .config               
     <dbl> <chr>   <chr>      <dbl> <int>   <dbl> <chr>                 
 1 0.001   rmse    standard   5.97     10  1.05   Preprocessor1_Model001
 2 0.001   rsq     standard   0.602    10  0.0576 Preprocessor1_Model001
 3 0.00115 rmse    standard   5.97     10  1.05   Preprocessor1_Model002
 4 0.00115 rsq     standard   0.602    10  0.0576 Preprocessor1_Model002
 5 0.00132 rmse    standard   5.97     10  1.05   Preprocessor1_Model003
 6 0.00132 rsq     standard   0.602    10  0.0576 Preprocessor1_Model003
 7 0.00152 rmse    standard   5.97     10  1.05   Preprocessor1_Model004
 8 0.00152 rsq     standard   0.602    10  0.0576 Preprocessor1_Model004
 9 0.00175 rmse    standard   5.97     10  1.05   Preprocessor1_Model005
10 0.00175 rsq     standard   0.602    10  0.0576 Preprocessor1_Model005
# ℹ 190 more rows
…
Main Arguments:
  penalty = tune()
  mixture = 0

Computational engine: glmnet 

Tuning grid

lambda_grid <-
  grid_regular(penalty(range = c(-3,3), trans = log10_trans()), levels = 100)
lambda_grid

# A tibble: 100 × 1
   penalty
     <dbl>
 1 0.001  
 2 0.00115
 3 0.00132
 4 0.00152
 5 0.00175
 6 0.00201
 7 0.00231
 8 0.00266
 9 0.00305
10 0.00351
# ℹ 90 more rows
…
# Visualize CV criterion
ridge_fit %>%
  collect_metrics() %>%
  print(width = Inf) %>%
  filter(.metric == "rmse") %>%
  ggplot(mapping = aes(x = penalty, y = mean)) +
  geom_line() +
  geom_point() +
  labs(title = "Ridge CV RMSE", x = "Penalty", y = "CV RMSE") +
  scale_x_log10(labels = scales::label_number())

# A tibble: 200 × 7
   penalty .metric .estimator  mean     n std_err .config               
     <dbl> <chr>   <chr>      <dbl> <int>   <dbl> <chr>                 
 1 0.001   rmse    standard   6.07     10  0.988  Preprocessor1_Model001
 2 0.001   rsq     standard   0.546    10  0.0533 Preprocessor1_Model001
 3 0.00115 rmse    standard   6.07     10  0.988  Preprocessor1_Model002
 4 0.00115 rsq     standard   0.546    10  0.0533 Preprocessor1_Model002
 5 0.00132 rmse    standard   6.07     10  0.988  Preprocessor1_Model003
 6 0.00132 rsq     standard   0.546    10  0.0533 Preprocessor1_Model003
 7 0.00152 rmse    standard   6.07     10  0.988  Preprocessor1_Model004
 8 0.00152 rsq     standard   0.546    10  0.0533 Preprocessor1_Model004
 9 0.00175 rmse    standard   6.07     10  0.988  Preprocessor1_Model005
10 0.00175 rsq     standard   0.546    10  0.0533 Preprocessor1_Model005
# ℹ 190 more rows
…
